{
  "main": {
    "logo": "/images/aortem-logo-svg.png",
    "title": "Everything You Need To Build Your Flutter App",
    "icons": "/images/path-3194.png",
    "icon-url": "/"
  },

  "company": {
    "title": "Company",
    "link_name_1": "Discord",
    "link_1": "/",
    "link_name_2": "Contact Us",
    "link_2": "/"
  },

  "legal": {
    "title": "Legal",
    "link_name_1": "Terms of services",
    "link_1": "/",
    "link_name_2": "Privacy Policy",
    "link_2": "/"
  },
  "copyright": {
    "text": "©Aortem 2021"
  }
}
